Задание по автоматизации данных в R
…
Все остальные переменные и так являются numeric, как и должно
быть.

Отсортируйте данные по возрасту по убыванию;

df_cleaned_rows <- df_cleaned_rows %>% arrange(desc(age))
df_cleaned_rows

## # A tibble: 3,656 × 16
##    sex      age education_level smokes cigarettes_per_day antihypertensitive_m…¹
##    <fct>  <dbl> <fct>           <fct>               <dbl> <fct>                 
##  1 Female    70 2               No                      0 Yes                   
##  2 Female    69 3               No                      0 No                    
##  3 Male      69 1               Yes                     4 No                    
##  4 Female    69 3               No                      0 Yes                   
##  5 Male      69 1               Yes                     1 No                    
##  6 Female    69 2               No                      0 Yes                   
##  7 Male      68 1               No                      0 No                    
##  8 Male      68 2               Yes                    10 No                    
##  9 Male      68 1               Yes                    10 No                    
## 10 Male      68 1               No                      0 No                    
## # ℹ 3,646 more rows
## # ℹ abbreviated name: ¹​antihypertensitive_medication
## # ℹ 10 more variables: prevalent_stroke <fct>, prevalent_hypertensive <fct>,
## #   diabetic <fct>, total_cholesterol <dbl>, systolic_blood_pressure <dbl>,
## #   diastolic_blood_pressure <dbl>, body_mass_index <dbl>, heart_rate <dbl>,
## #   glucose <dbl>, coronary_heart_disease_in_10_years <fct>
…
